CustName, CustEmail
Phillip Hansen,seckucac@ibevutket.ph
Jeremiah Holt,azuhha@log.eh
Alfred Wright,zu@nohbab.kg
Jesse Barber,muuw@azdefsa.mr
Cory Hopkins,iliguruz@kuwaip.mw
Jonathan Clayton,jekubov@cevazdo.bf
Joseph Hernandez,ov@bamujpu.ga
Michael McCormick,hoczogu@ge.yt
Lois Moore,duemikic@povur.cm
Alberta Jacobs,reoz@dikcule.lk
Isaac Moran,cag@hafe.sl
Olivia Tyler,te@ud.tk
Mina Thomas,zi@lusohoc.bn
Nora Bridges,uvokuf@mo.ng
Nicholas Hayes,foshacol@viis.kn
Ora Brock,ora@miemug.is
Sean Freeman,buj@sugin.is
Ryan Fletcher,hiz@tevdot.tl
Terry Newman,og@foujora.su
Jesus Schneider,fuohker@ri.tn
Trevor Houston,pu@ebaaltej.ao
Martin Gordon,vimpiner@ijifotce.ge
Ethan Farmer,uzpizot@ruup.fm
Nicholas Cross,webiun@ta.sn
Mary Gonzalez,cej@lige.nz
Rena Lindsey,cowluruk@ow.kn
Mamie Potter,iz@nutihapi.ac
Annie Mullins,pal@levkezina.si
Violet Luna,vabit@mugpoci.sy
Carlos Bradley,biregu@murmoher.sc
Pearl Joseph,ramiar@ipiku.cd
Kenneth Keller,gif@saupo.com
Nannie Gardner,ufloho@ju.kp
Maria Lucas,irihus@gewkosor.tc
Shane Moore,azhi@jijtip.am
Harriet Pittman,upo@kobiw.fj
Helena Hodges,lar@hat.bt
Jeanette Hogan,sosjawi@sucesfe.pr
Brent Miller,wedgajca@subfofhez.ve
Elizabeth Santiago,madfohu@cud.aw
Floyd Rowe,ahe@alisob.gb
Jeffery Rodriguez,oc@go.yt
Mario Osborne,ufado@kulvo.mu
Steven Maldonado,fe@po.ky
Jesus Carroll,sulieke@dogesfu.dk
Lucile Marsh,fucripo@le.ru
Troy Figueroa,rufin@kidwehgu.hu
Millie Baldwin,og@asasur.np
Bertie Harris,ubidu@pem.su
May Oliver,ov@lemiti.cx
Luella Barrett,ufjo@niktivi.pw
Leona Larson,naija@kopir.bh
Ruby Mendez,zistiw@ideji.ar
Dennis Richards,neluzo@vovni.om
Clarence Bailey,siniba@kohub.an
Alan Park,kid@ge.nf
Philip Cole,dukedcer@ekoto.vc
Harriett Cook,so@miotjan.pf
Bernard Sandoval,gi@nuekosom.net
Louise Murray,sihofi@uwitatu.la
Isaac Maldonado,bubgop@ako.ca
Bruce Coleman,sakumij@ocisev.fm
Lucille Anderson,uhotori@demur.ps
Polly Sims,kuchospo@ha.io
Keith Paul,laemada@olmiv.zw
Larry Carter,oda@ole.eg
Eddie Jenkins,oni@ijera.lk
Evan Tran,wigpeda@sowozura.pk
Caleb Bennett,koba@ereno.ir
Gerald Moreno,nedez@jiwudil.ga
Ian Dixon,di@lez.bb
Jeanette Bates,sevtesur@hes.lc
Jackson Ballard,jus@so.ad
Stephen Stevens,se@hus.er
Rosie Harris,ibobikpi@ro.la
Blanche Lawrence,oji@patoz.sa
Bertha Webb,budpikzec@hik.ua
Gussie Rivera,raji@wikur.nr
Lela Perez,ow@getu.hn
Vernon Rodgers,go@hov.id
Cora Baker,diganuj@lakop.kh
Willie Jimenez,funi@gamlav.st
Charlie Graham,cukkodul@tiufofup.iq
Rena Gibson,ru@lulwauf.ps
Willie Hale,fe@fam.va
Lulu Smith,lozza@jaferwim.ie
Franklin Rodgers,pa@ne.sm
Derrick Stanley,kak@su.kn
Katherine Matthews,go@fuz.hr
Bernard Jacobs,mehgefwi@agpu.ag
Leo Lowe,lidce@tuh.vn
Fanny Miller,ohumhi@ci.sa
Bernard Hampton,toh@bedli.vi
Mina Hill,zigeka@agsetze.rs
Blake Collins,vujji@co.sl
Flora Rodriguez,ru@duze.sb
Marion Hayes,opgun@zetve.gm
Tom Stephens,hirusdet@kof.to
Edgar Norton,fa@ani.dz
Estelle Conner,megur@ruwuji.aq
